[
  {
    "ParameterKey": "MySecurityGroupNameTag",
    "ParameterValue": "acqaCftTestStack1SG1"
  },
  {
    "ParameterKey": "MyInstanceNameTag",
    "ParameterValue": "acqaCftTestStack1Inst1"
  }
]
